{
    "name": "RefOn.Tests",
    "references": [
        "GUID:2ed507fde2b2c0212895c431f0628e20",
        "GUID:66e22638846b71fd588312bbe0c2dee2"
    ],
    "optionalUnityReferences": [
        "TestAssemblies"
    ],
    "includePlatforms": [],
    "excludePlatforms": [],
    "allowUnsafeCode": false,
    "overrideReferences": false,
    "precompiledReferences": [],
    "autoReferenced": true,
    "defineConstraints": [],
    "versionDefines": []
}